<?xml version="1.0" encoding="utf-8"?>
<!-- Svg Vector Icons : http://www.onlinewebfonts.com/icon -->
<!DOCTYPE svg PUBLIC "-//W3C//DTD SVG 1.1//EN" "http://www.w3.org/Graphics/SVG/1.1/DTD/svg11.dtd">
<svg version="1.1" xmlns="http://www.w3.org/2000/svg" xmlns:xlink="http://www.w3.org/1999/xlink" x="0px" y="0px" viewBox="0 0 1000 1000" enable-background="new 0 0 1000 1000" xml:space="preserve">
<metadata> Svg Vector Icons : http://www.onlinewebfonts.com/icon </metadata>
<g><path d="M153.1,908.3c0,40.8,40.8,81.7,81.7,81.7c40.8,0,81.7-40.8,81.7-81.7c0-40.8-32.5-81.7-81.7-81.7C193.9,826.7,153.1,867.5,153.1,908.3z M479.7,908.3c0,40.8,40.8,81.7,81.7,81.7c40.8,0,81.7-40.8,81.7-81.7c0-40.8-40.8-81.7-81.7-81.7C520.6,826.7,479.7,867.5,479.7,908.3z M826.8,10c-13.6,0-23.7,9.6-27,23.2L745.2,255H110.3c-18.3,0-38.9,0-59.3,20.4c-20.4,20.4-23.4,83.8-19,102.1l78.3,321.1c6.6,27.3,30.4,46.4,57.6,46.4h475.2c27.3,0,51-19.1,57.6-46.4L847.2,91.7h81.7c16.4,0,40.8,0,40.8-40.8c0-40.8-24.4-40.8-40.8-40.8H826.8z M173.5,663.3l-71.8-287.3c-5.4-21.8,8.4-39.4,30.7-39.4h551.8c22.4,0,36.2,17.6,30.7,39.4l-71.8,287.3H173.5z"/></g>
</svg>